{
  "images" : [
    {
      "idiom" : "universal",
      "filename" : "a05006d4-5e38-44cf-8bfe-be50a882ec87_200x200.png",
      "scale" : "1x"
    },
    {
      "idiom" : "universal",
      "scale" : "2x"
    },
    {
      "idiom" : "universal",
      "scale" : "3x"
    }
  ],
  "info" : {
    "version" : 1,
    "author" : "xcode"
  }
}